%YAML 1.1
%TAG !u! tag:unity3d.com,2011:
--- !u!114 &11400000
MonoBehaviour:
  m_ObjectHideFlags: 0
  m_CorrespondingSourceObject: {fileID: 0}
  m_PrefabInstance: {fileID: 0}
  m_PrefabAsset: {fileID: 0}
  m_GameObject: {fileID: 0}
  m_Enabled: 1
  m_EditorHideFlags: 0
  m_Script: {fileID: 11500000, guid: 4860ed2a64246ca4f824051538d4e0e5, type: 3}
  m_Name: Orb Room Open
  m_EditorClassIdentifier: 
  roomName: Orb Room
  description: Suddenly, there is a shower of dust. The door back to the entrance
    slams shut.
  exits:
  - connectedRoom: {fileID: 11400000, guid: 6515a40cb8b894f4bb798e62c276578b, type: 2}
    keyString: West
    exitDescription: A secret door opens to the west.
  objects: []
